Heart Disease Mortality in the Scotland
…
class: inverse, center, middle

# How do we clean the data?

---
# How do we clean the data?

.pull-left[

- Select key variables. 
- Remove NA values.

```
## # A tibble: 7,230 × 3
##    AgeGroup     Sex     Diagnosis             
##    <chr>        <chr>   <chr>                 
##  1 0-44 years   Males   Coronary Heart Disease
##  2 0-44 years   Females Coronary Heart Disease
##  3 45-64 years  Males   Coronary Heart Disease
##  4 45-64 years  Females Coronary Heart Disease
##  5 65-74 years  Males   Coronary Heart Disease
##  6 65-74 years  Females Coronary Heart Disease
##  7 75plus years Males   Coronary Heart Disease
##  8 75plus years Females Coronary Heart Disease
##  9 0-44 years   Males   Coronary Heart Disease
## 10 0-44 years   Females Coronary Heart Disease
## # ℹ 7,220 more rows
```
…
